Chapter 3 Data | Geospatial Analysis of Chronic Diseases
…
The above visualization affirms that the LowConfidenceLimit and HighConfidenceLimit are indeed correlated. In fact they are most likely the same because the rows that have missing LowConfidenceLimit also have missing HighConfidenceLimit and vice versa. A similar conclusion can be made for DataValue and DataValueAlt. GeoLocation has been consistent in the sense that it has very few missing values.

Since the above plots did not really take other columns (columns without missing values) into consideration, it can be difficult to gauge the relativity between columns that do not have missing values and the columns that have missing values.
Therefore, the below plot shows all the columns. The bars filled with blue indicates the one’s having missing values therefore they are indicated as True. False indicates that the region does not have missing values. Variables represent the columns

## # A tibble: 5,345,758 × 2
##    variables     missing
##    <chr>         <lgl>  
##  1 YearStart     FALSE  
##  2 YearEnd       FALSE  
##  3 LocationAbbr  FALSE  
##  4 LocationDesc  FALSE  
##  5 DataSource    FALSE  
##  6 Topic         FALSE  
##  7 Question      FALSE  
##  8 DataValueUnit TRUE   
##  9 DataValueType FALSE  
## 10 DataValue     FALSE  
## # … with 5,345,748 more rows

## # A tibble: 28 × 3
##    variables       missing      n
##    <chr>           <lgl>    <int>
##  1 DataSource      FALSE   242989
##  2 DataValue       FALSE   163817
##  3 DataValue       TRUE     79172
##  4 DataValueAlt    FALSE   163074
##  5 DataValueAlt    TRUE     79915
##  6 DataValueType   FALSE   242989
##  7 DataValueTypeID FALSE   242989
##  8 DataValueUnit   FALSE   229257
##  9 DataValueUnit   TRUE     13732
## 10 GeoLocation     FALSE   241303
## # … with 18 more rows
…
